Home Advantage in the Olympics – Uras Uyal
…
Our alternative hypothesis is that the null hypothesis is incorrect; however, in order to draw a possible more precise statistical conclusion, in the event our alternative hypothesis is shown to be true, we will also be calculating 2 different p-values in order to conclude if hosting the summer olympics yields better results on a per participating athlete basis or not (not just that it has a statistical significance).

tuesdata <- tidytuesdayR::tt_load('2024-08-06')
olympics <- tuesdata$olympics
library(purrr)
library(tidyverse)
library(tidytuesdayR)
library(ggplot2)

Here is a small snapshot of the data set we are working with:

olympics

# A tibble: 271,116 × 15
      id name     sex     age height weight team  noc   games  year season city 
   <dbl> <chr>    <chr> <dbl>  <dbl>  <dbl> <chr> <chr> <chr> <dbl> <chr>  <chr>
 1     1 A Dijia… M        24    180     80 China CHN   1992…  1992 Summer Barc…
 2     2 A Lamusi M        23    170     60 China CHN   2012…  2012 Summer Lond…
 3     3 Gunnar … M        24     NA     NA Denm… DEN   1920…  1920 Summer Antw…
 4     4 Edgar L… M        34     NA     NA Denm… DEN   1900…  1900 Summer Paris
 5     5 Christi… F        21    185     82 Neth… NED   1988…  1988 Winter Calg…
 6     5 Christi… F        21    185     82 Neth… NED   1988…  1988 Winter Calg…
 7     5 Christi… F        25    185     82 Neth… NED   1992…  1992 Winter Albe…
 8     5 Christi… F        25    185     82 Neth… NED   1992…  1992 Winter Albe…
 9     5 Christi… F        27    185     82 Neth… NED   1994…  1994 Winter Lill…
10     5 Christi… F        27    185     82 Neth… NED   1994…  1994 Winter Lill…
# ℹ 271,106 more rows
# ℹ 3 more variables: sport <chr>, event <chr>, medal <chr>
…
# Defining a function to change city names into their respective countries (as if they were in 2025) so that we can compare teams and countries for home-field advantage
hostcitytocountry <- function(olympicsdata, city) {
  hostcitytocountry <- data.frame(
    city = c("Seoul", "Barcelona", "Atlanta", "Sydney", "Athina", "Beijing", "London", "Rio de Janeiro"),
    country = c("South Korea", "Spain", "United States", "Australia", "Greece", "China", "Great Britain", "Brazil"))
  updatedolympicsdata <- olympicsdata |>
    left_join(hostcitytocountry, by = setNames("city", city)) |>
    mutate(!!city := country) |> select(-country) 
}

olympicsdata <- hostcitytocountry(olympicsdata, "city")
olympicsdata

# A tibble: 106,268 × 16
      id name     sex     age height weight team  noc   games  year season city 
   <dbl> <chr>    <chr> <dbl>  <dbl>  <dbl> <chr> <chr> <chr> <dbl> <chr>  <chr>
 1     1 A Dijia… M        24    180   80   China CHN   1992…  1992 Summer Spain
 2     2 A Lamusi M        23    170   60   China CHN   2012…  2012 Summer Grea…
 3    12 Jyri Ta… M        31    172   70   Finl… FIN   2000…  2000 Summer Aust…
 4    13 Minna M… F        30    159   55.5 Finl… FIN   1996…  1996 Summer Unit…
 5    13 Minna M… F        34    159   55.5 Finl… FIN   2000…  2000 Summer Aust…
 6    18 Timo An… M        31    189  130   Finl… FIN   2000…  2000 Summer Aust…
 7    21 Ragnhil… F        27    163   NA   Norw… NOR   2008…  2008 Summer China
 8    22 Andreea… F        22    170  125   Roma… ROU   2016…  2016 Summer Braz…
 9    23 Fritz A… M        22    187   89   Norw… NOR   2000…  2000 Summer Aust…
10    23 Fritz A… M        26    187   89   Norw… NOR   2004…  2004 Summer Gree…
# ℹ 106,258 more rows
# ℹ 4 more variables: sport <chr>, event <chr>, medal <chr>, medal_points <dbl>
…
# Summarizing data table based on competing team, calculating the average medal points per athlete per country by summing up number of athletes and averaging out, host city country, and year; and summarizing in a data table organized alphabetically by team country name.
final_table <- map_dfr(host_countries, function(country) {
  olympicsdata |>
    filter(team==country) |>
    group_by(team, year, city) |>
    summarise(average_medal_points = mean(medal_points, na.rm = TRUE),  
      athletes_per_team = n_distinct(id), .groups = "drop") |>
    mutate(average_medal_points_per_athlete = (average_medal_points/athletes_per_team)) |>
    select(team, average_medal_points_per_athlete, city, year) 
}) |> arrange(team)

final_table

# A tibble: 64 × 4
   team      average_medal_points_per_athlete city           year
   <chr>                                <dbl> <chr>         <dbl>
 1 Australia                         0.000901 South Korea    1988
 2 Australia                         0.00103  Spain          1992
 3 Australia                         0.000940 United States  1996
 4 Australia                         0.000797 Australia      2000
 5 Australia                         0.00123  Greece         2004
 6 Australia                         0.00105  China          2008
 7 Australia                         0.000929 Great Britain  2012
 8 Australia                         0.000767 Brazil         2016
 9 Brazil                            0.00113  South Korea    1988
10 Brazil                            0.000967 Spain          1992
# ℹ 54 more rows
…
[1] 0.0007362636

This means that athletes who are qualified to the Olympics are 44.7% more likely, on average, to score a medal if their country is not the host for that year, according to our data set.

Permutation Test

In order to do a permutation test, let’s add a simple column showing whether if the country was the host or not for a given average medal points per athlete for a given Summer Olympics, appending it to our data table above.

final_table <- final_table |> 
  mutate(host_or_not = ifelse(team==city, "Yes", "No"))

final_table

# A tibble: 64 × 5
   team      average_medal_points_per_athlete city           year host_or_not
   <chr>                                <dbl> <chr>         <dbl> <chr>      
 1 Australia                         0.000901 South Korea    1988 No         
 2 Australia                         0.00103  Spain          1992 No         
 3 Australia                         0.000940 United States  1996 No         
 4 Australia                         0.000797 Australia      2000 Yes        
 5 Australia                         0.00123  Greece         2004 No         
 6 Australia                         0.00105  China          2008 No         
 7 Australia                         0.000929 Great Britain  2012 No         
 8 Australia                         0.000767 Brazil         2016 No         
 9 Brazil                            0.00113  South Korea    1988 No         
10 Brazil                            0.000967 Spain          1992 No         
# ℹ 54 more rows
…
